DrugUtilisation
…
Alternative treatments

x <- cdm$dus_new_user |>
  summariseTreatmentFromConceptSet(
    treatmentConceptSet = getDrugIngredientCodes(cdm = cdm), 
    window = list(c(0, 90), c(91, 180), c(181, 270), c(271, 360))
  )
x |>
  select("variable_name", "estimate_name", "estimate_value", "additional_name", "additional_level")

# A tibble: 736 × 5
   variable_name estimate_name estimate_value     additional_name additional_level
   <chr>         <chr>         <chr>              <chr>           <chr>           
 1 acetaminophen count         1979               window          0 to 90         
 2 acetaminophen percentage    100                window          0 to 90         
 3 albuterol     count         2                  window          0 to 90         
 4 albuterol     percentage    0.101061141990904  window          0 to 90         
 5 alendronate   count         1                  window          0 to 90         
 6 alendronate   percentage    0.0505305709954522 window          0 to 90         
 7 alfentanil    count         1                  window          0 to 90         
 8 alfentanil    percentage    0.0505305709954522 window          0 to 90         
 9 alteplase     count         0                  window          0 to 90         
10 alteplase     percentage    0                  window          0 to 90         
# ℹ 726 more rows
…
