CohortCharacteristics
…
Can you summarise the characteristics for conditions cohort and include the % of subjects that took the medications in the medications cohort after record of the conditions? Also create a gt table?

Solution

results <- cdm$conditions |> 
    summariseCharacteristics(
    demographics = TRUE,
    cohortIntersectFlag = list("Medications anytime after" = list(
        targetCohortTable = "medications", window = c(1, Inf)
      )
    ))
  
print(results)

# A tibble: 294 × 13
   result_id cdm_name     group_name group_level strata_name strata_level variable_name variable_level estimate_name estimate_type
       <int> <chr>        <chr>      <chr>       <chr>       <chr>        <chr>         <chr>          <chr>         <chr>        
 1         1 Synthea syn… cohort_na… fracture    overall     overall      Number recor… <NA>           count         integer      
 2         1 Synthea syn… cohort_na… allergy     overall     overall      Number recor… <NA>           count         integer      
 3         1 Synthea syn… cohort_na… infection   overall     overall      Number recor… <NA>           count         integer      
 4         1 Synthea syn… cohort_na… asthma      overall     overall      Number recor… <NA>           count         integer      
 5         1 Synthea syn… cohort_na… myocardial… overall     overall      Number recor… <NA>           count         integer      
 6         1 Synthea syn… cohort_na… pneumonia   overall     overall      Number recor… <NA>           count         integer      
 7         1 Synthea syn… cohort_na… fracture    overall     overall      Number subje… <NA>           count         integer      
 8         1 Synthea syn… cohort_na… allergy     overall     overall      Number subje… <NA>           count         integer      
 9         1 Synthea syn… cohort_na… infection   overall     overall      Number subje… <NA>           count         integer      
10         1 Synthea syn… cohort_na… asthma      overall     overall      Number subje… <NA>           count         integer      
# ℹ 284 more rows
# ℹ 3 more variables: estimate_value <chr>, additional_name <chr>, additional_level <chr>
…
