PatientProfiles
…
Summarise data

# A tibble: 93 × 13
   result_id cdm_name     group_name group_level strata_name strata_level variable_name variable_level estimate_name estimate_type
       <int> <chr>        <chr>      <chr>       <chr>       <chr>        <chr>         <chr>          <chr>         <chr>        
 1         1 Synthea syn… overall    overall     overall     overall      number recor… <NA>           count         integer      
 2         1 Synthea syn… overall    overall     overall     overall      number subje… <NA>           count         integer      
 3         1 Synthea syn… overall    overall     overall     overall      number_condi… <NA>           median        numeric      
 4         1 Synthea syn… overall    overall     overall     overall      number_condi… <NA>           q25           numeric      
 5         1 Synthea syn… overall    overall     overall     overall      number_condi… <NA>           q75           numeric      
 6         1 Synthea syn… overall    overall     overall     overall      age           <NA>           median        integer      
 7         1 Synthea syn… overall    overall     overall     overall      age           <NA>           q25           integer      
 8         1 Synthea syn… overall    overall     overall     overall      age           <NA>           q75           integer      
 9         1 Synthea syn… overall    overall     overall     overall      sex           Female         count         integer      
10         1 Synthea syn… overall    overall     overall     overall      sex           Male           count         integer      
# ℹ 83 more rows
# ℹ 3 more variables: estimate_value <chr>, additional_name <chr>, additional_level <chr>
…
