PatientProfiles tutorial
…
Summarise data

# A tibble: 93 × 16
   result_id cdm_name       result_type package_name package_version group_name group_level strata_name strata_level variable_name
       <int> <chr>          <chr>       <chr>        <chr>           <chr>      <chr>       <chr>       <chr>        <chr>        
 1         1 Synthea synth… summarise_… PatientProf… 0.7.0           overall    overall     overall     overall      number recor…
 2         1 Synthea synth… summarise_… PatientProf… 0.7.0           overall    overall     overall     overall      number subje…
 3         1 Synthea synth… summarise_… PatientProf… 0.7.0           overall    overall     overall     overall      number_condi…
 4         1 Synthea synth… summarise_… PatientProf… 0.7.0           overall    overall     overall     overall      number_condi…
 5         1 Synthea synth… summarise_… PatientProf… 0.7.0           overall    overall     overall     overall      number_condi…
 6         1 Synthea synth… summarise_… PatientProf… 0.7.0           overall    overall     overall     overall      age          
 7         1 Synthea synth… summarise_… PatientProf… 0.7.0           overall    overall     overall     overall      age          
 8         1 Synthea synth… summarise_… PatientProf… 0.7.0           overall    overall     overall     overall      age          
 9         1 Synthea synth… summarise_… PatientProf… 0.7.0           overall    overall     overall     overall      sex          
10         1 Synthea synth… summarise_… PatientProf… 0.7.0           overall    overall     overall     overall      sex          
# ℹ 83 more rows
# ℹ 6 more variables: variable_level <chr>, estimate_name <chr>, estimate_type <chr>, estimate_value <chr>,
#   additional_name <chr>, additional_level <chr>
…
