Bespoke code
…
or you can use add_tally() if you want to include the tally for each group as a new column in your orginial dataset. Try below yourself.

Remember to ungroup() the data set when you finish to eliminate the groups as the groupings can sometime cause error with other operation

arrange

arrange is used to arrange data

cdm$person |> 
  group_by(year_of_birth) |> 
  tally()  |> 
  collect() |>
  arrange(n)

# A tibble: 78 × 2
   year_of_birth     n
           <int> <dbl>
 1          1908     2
 2          1917     2
 3          1928     2
 4          1986     2
 5          1921     3
 6          1929     3
 7          1925     4
 8          1931     4
 9          1932     4
10          1985     4
# ℹ 68 more rows

desc

desc is used to arrange data in descending order

cdm$person |> 
  group_by(year_of_birth) |> 
  tally() |> 
  collect() |> 
  arrange(desc(n))

# A tibble: 78 × 2
   year_of_birth     n
           <int> <dbl>
 1          1972    88
 2          1963    84
 3          1961    82
 4          1960    79
 5          1971    79
 6          1970    74
 7          1969    72
 8          1959    70
 9          1967    70
10          1956    69
# ℹ 68 more rows

Your turn

Can you identify which is the most repeated drug_concept_id code in the drug exposure table?

# A tibble: 113 × 2
   drug_concept_id     n
             <int> <dbl>
 1         1127433  9365
 2        40213160  7977
 3        40213227  7430
 4        19059056  4380
 5         1713671  3851
 6        40213296  3211
 7         1127078  2158
 8        40213260  2125
 9        40229134  1993
10        40213306  1916
# ℹ 103 more rows
…
Your turn

Can you identify how many different persons present each of the condition_concept_id in condition_occurrence?

Identify distinct pairs of person_id and condition_concept_id

Count how many times each condition_concept_id appears

# A tibble: 80 × 2
   condition_concept_id number_persons
                  <int>          <dbl>
 1                80180           2694
 2             40481087           2686
 3              4112343           2606
 4               260139           2543
 5               372328           2025
 6                28060           1677
 7                81151           1357
 8               378001            852
 9              4283893            833
10               257012            812
# ℹ 70 more rows

Your turn

Can you identify how many different persons present each of the condition_concept_id in condition_occurrence?

cdm$condition_occurrence |> 
  select("person_id","condition_concept_id") |>
  distinct() |> 
  group_by(condition_concept_id) |>
  tally() |>
  rename("number_persons" = "n") |> 
  collect() |>
  arrange(desc(number_persons))

# A tibble: 80 × 2
   condition_concept_id number_persons
                  <int>          <dbl>
 1                80180           2694
 2             40481087           2686
 3              4112343           2606
 4               260139           2543
 5               372328           2025
 6                28060           1677
 7                81151           1357
 8               378001            852
 9              4283893            833
10               257012            812
# ℹ 70 more rows
…
collect()

table5 |> collect()

# A tibble: 2,694 × 22
   person_id gender_concept_id year_of_birth month_of_birth day_of_birth
       <int>             <int>         <int>          <int>        <int>
 1         6              8532          1963             12           31
 2        16              8532          1971             10           13
 3        42              8532          1909             11            2
 4        18              8532          1965             11           17
 5        35              8532          1960              3           22
 6        40              8507          1951             12            5
 7        53              8507          1962              8           15
 8         9              8532          1978              7           20
 9         2              8532          1920              6            1
10        49              8507          1972             11            4
# ℹ 2,684 more rows
# ℹ 17 more variables: birth_datetime <dttm>, race_concept_id <int>,
#   ethnicity_concept_id <int>, location_id <int>, provider_id <int>,
#   care_site_id <int>, person_source_value <chr>, gender_source_value <chr>,
#   gender_source_concept_id <int>, race_source_value <chr>,
#   race_source_concept_id <int>, ethnicity_source_value <chr>,
#   ethnicity_source_concept_id <int>, observation_period_id <int>, …
…
