OMOP and CDMConnector
…
Read tables in Eunomia

If you are familiarized with tidyverse you can use any of the usual dplyr commands in you database tables.

tbl(db, "drug_exposure") |>
  group_by(drug_concept_id) |>
  summarise(number_persons = n_distinct(person_id)) |>
  collect() |>
  arrange(desc(number_persons))

# A tibble: 113 × 2
   drug_concept_id number_persons
             <int>          <dbl>
 1        40213227           2660
 2         1127433           2580
 3        40213160           2140
 4         1713671           2021
 5        19059056           1927
 6         1118084           1844
 7        40213296           1737
 8        40213306           1560
 9         1127078           1428
10        40229134           1393
# ℹ 103 more rows
…
%>% head(2) was used to only show the first 2 lines.

Creating a reference to the OMOP common data model

With this you can start playing with the tables and for example see which are the individuals with more drug_exposure records:

cdm$drug_exposure |>
  group_by(person_id) |>
  count() |>
  collect() |>
  arrange(desc(n))

# A tibble: 2,694 × 2
# Groups:   person_id [2,694]
   person_id     n
       <int> <dbl>
 1        36    54
 2      2333    50
 3      1478    47
 4      2985    45
 5      3708    44
 6      1746    44
 7      4297    43
 8      4613    42
 9      3695    42
10      2731    41
# ℹ 2,684 more rows
…
